<svg width="19" height="19" viewBox="0 0 19 19" fill="none" xmlns="http://www.w3.org/2000/svg">
<path d="M12.9817 6.01828C12.8945 5.93032 12.7907 5.86051 12.6763 5.81286C12.562 5.76522 12.4393 5.74069 12.3154 5.74069C12.1915 5.74069 12.0689 5.76522 11.9545 5.81286C11.8401 5.86051 11.7363 5.93032 11.6491 6.01828L9.5 8.17676L7.35091 6.01828C7.17419 5.84157 6.93451 5.74229 6.6846 5.74229C6.43468 5.74229 6.195 5.84157 6.01828 6.01828C5.84157 6.195 5.74229 6.43468 5.74229 6.6846C5.74229 6.93451 5.84157 7.17419 6.01828 7.35091L8.17676 9.5L6.01828 11.6491C5.93032 11.7363 5.86051 11.8401 5.81286 11.9545C5.76522 12.0689 5.74069 12.1915 5.74069 12.3154C5.74069 12.4393 5.76522 12.562 5.81286 12.6763C5.86051 12.7907 5.93032 12.8945 6.01828 12.9817C6.10553 13.0697 6.20932 13.1395 6.32368 13.1871C6.43804 13.2348 6.56071 13.2593 6.6846 13.2593C6.80848 13.2593 6.93115 13.2348 7.04551 13.1871C7.15987 13.1395 7.26367 13.0697 7.35091 12.9817L9.5 10.8232L11.6491 12.9817C11.7363 13.0697 11.8401 13.1395 11.9545 13.1871C12.0689 13.2348 12.1915 13.2593 12.3154 13.2593C12.4393 13.2593 12.562 13.2348 12.6763 13.1871C12.7907 13.1395 12.8945 13.0697 12.9817 12.9817C13.0697 12.8945 13.1395 12.7907 13.1871 12.6763C13.2348 12.562 13.2593 12.4393 13.2593 12.3154C13.2593 12.1915 13.2348 12.0689 13.1871 11.9545C13.1395 11.8401 13.0697 11.7363 12.9817 11.6491L10.8232 9.5L12.9817 7.35091C13.0697 7.26367 13.1395 7.15987 13.1871 7.04551C13.2348 6.93115 13.2593 6.80848 13.2593 6.6846C13.2593 6.56071 13.2348 6.43804 13.1871 6.32368C13.1395 6.20932 13.0697 6.10553 12.9817 6.01828ZM16.135 2.86503C15.2693 1.9687 14.2337 1.25375 13.0887 0.761912C11.9438 0.270071 10.7123 0.0111825 9.46623 0.000354335C8.22013 -0.0104739 6.98436 0.226975 5.83102 0.698844C4.67768 1.17071 3.62986 1.86756 2.74871 2.74871C1.86756 3.62986 1.17071 4.67768 0.698844 5.83102C0.226975 6.98436 -0.0104739 8.22013 0.000354335 9.46623C0.0111825 10.7123 0.270071 11.9438 0.761912 13.0887C1.25375 14.2337 1.9687 15.2693 2.86503 16.135C3.73074 17.0313 4.76629 17.7462 5.91126 18.2381C7.05622 18.7299 8.28768 18.9888 9.53377 18.9996C10.7799 19.0105 12.0156 18.773 13.169 18.3012C14.3223 17.8293 15.3701 17.1324 16.2513 16.2513C17.1324 15.3701 17.8293 14.3223 18.3012 13.169C18.773 12.0156 19.0105 10.7799 18.9996 9.53377C18.9888 8.28768 18.7299 7.05622 18.2381 5.91126C17.7462 4.76629 17.0313 3.73074 16.135 2.86503ZM14.8117 14.8117C13.5842 16.0406 11.9687 16.8058 10.2403 16.9771C8.51184 17.1483 6.77751 16.715 5.33275 15.7509C3.888 14.7868 2.8222 13.3517 2.31694 11.6899C1.81168 10.0281 1.89823 8.24259 2.56183 6.63747C3.22542 5.03235 4.42502 3.70698 5.95624 2.88714C7.48746 2.06731 9.25557 1.80375 10.9593 2.14135C12.6631 2.47896 14.1971 3.39685 15.3 4.73865C16.4028 6.08044 17.0064 7.76312 17.0077 9.5C17.0111 10.4866 16.8187 11.4641 16.4418 12.3758C16.0648 13.2876 15.5108 14.1155 14.8117 14.8117Z" fill="white"/>
</svg>
